{
	"physics": {
		"temperature": 0.5,
		"external_flux_quanta": 1.5,
		"penetration_depth": 5.0,
		"crystal_axes_rotation": 0.0,
		"gauge": "symmetric",
		"charge_sign": -1,
		"scattering_energy": 0.0,
		"scattering_phase_shift": 0.0,
		"order_parameter": {
			"s": {
				"critical_temperature": 1.0,
				"initial_phase_shift": 0.0,
				"initial_noise_stddev": 0.0,
				"vortices": [
					{
						"center_x": 0.0,
						"center_y": 0.0,
						"winding_number": -1.0
					}
				]
			}
		}
	},
	"geometry": [
		{
			"disc": {
				"add": true,
				"center_x": 0.0,
				"center_y": 0.0,
				"radius": 15.0
			}
		}
	],
	"numerics": {
		"convergence_criterion": 1e-05,
		"energy_cutoff": 16.0,
		"norm": "l2",
		"num_energies_per_block": -1,
		"num_fermi_momenta": 32,
		"num_iterations_burnin": 0,
		"num_iterations_max": 10000,
		"num_iterations_min": 0,
		"points_per_coherence_length": 20.0,
		"vector_potential_error": 1e-06
	},
	"accelerator": {
		"name": "congacc"
	},
	"misc": {
		"data_format": "h5",
		"load_path": "",
		"save_order_parameter": true,
		"save_current_density": true,
		"save_vector_potential": true,
		"save_flux_density": true,
		"save_impurity_self_energy": false,
		"save_frequency": -1,
		"save_path": "data/examples/swave_disc_vortex",
		"verbose": true,
		"visualize": true
	}
}